dump.vcd
$date
	Sat Jun 28 04:12:29 2025
$end

$version
	Synopsys VCS version U-2023.03-SP2_Full64
$end

$timescale
	10ps
$end

$comment Csum: 1 f9c72b518f03f096 $end


$scope module $unit $end
$upscope $end


$scope module spi_slave $end
$var wire 1 ! sck $end
$var wire 1 " cs $end
$var wire 1 # mosi $end
$var wire 1 $ miso $end
$var reg 8 % interna_reg [7:0] $end
$var reg 8 & slv_reg [7:0] $end
$var reg 8 ' in_reg [7:0] $end
$var reg 8 ( rec_reg [7:0] $end
$var reg 8 ) count [7:0] $end
$upscope $end


$scope module tb_top_spi_project $end
$var reg 1 * clk $end
$var reg 1 + rst $end

$scope begin unnamed$$_vcs_3 $end
$upscope $end


$scope begin unnamed$$_vcs_0 $end
$upscope $end


$scope begin unnamed$$_vcs_1 $end
$upscope $end


$scope begin unnamed$$_vcs_2 $end
$upscope $end


$scope module wish_vintf $end
$var reg 1 , wb_clk_i $end
$var reg 1 - wb_rst_i $end
$var reg 5 . wb_adr_i [4:0] $end
$var reg 32 / wb_dat_i [31:0] $end
$var reg 4 0 wb_sel_i [3:0] $end
$var reg 1 1 wb_we_i $end
$var reg 1 2 wb_stb_i $end
$var reg 1 3 wb_cyc_i $end
$var reg 32 4 wb_dat_o [31:0] $end
$var reg 1 5 wb_ack_o $end
$var reg 1 6 wb_err_o $end
$var reg 1 7 wb_int_o $end
$upscope $end


$scope module io_vintf $end
$var reg 1 8 miso_pad_i $end
$var reg 8 9 ss_pad_o [7:0] $end
$var reg 1 : sclk_pad_o $end
$var reg 1 ; mosi_pad_o $end
$upscope $end


$scope module spi_top1 $end
$var wire 1 < wb_clk_i $end
$var wire 1 = wb_rst_i $end
$var wire 5 > wb_adr_i [4:0] $end
$var wire 32 ? wb_dat_i [31:0] $end
$var reg 32 @ wb_dat_o [31:0] $end
$var wire 4 A wb_sel_i [3:0] $end
$var wire 1 B wb_we_i $end
$var wire 1 C wb_stb_i $end
$var wire 1 D wb_cyc_i $end
$var reg 1 E wb_ack_o $end
$var wire 1 F wb_err_o $end
$var reg 1 G wb_int_o $end
$var wire 32 H ss_pad_o [31:0] $end
$var wire 1 I sclk_pad_o $end
$var wire 1 J mosi_pad_o $end
$var wire 1 K miso_pad_i $end
$var reg 16 L divider [15:0] $end
$var reg 14 M ctrl [13:0] $end
$var reg 32 N ss [31:0] $end
$var reg 32 O wb_dat [31:0] $end
$var wire 128 P rx [127:0] $end
$var wire 1 Q rx_negedge $end
$var wire 1 R tx_negedge $end
$var wire 7 S char_len [6:0] $end
$var wire 1 T go $end
$var wire 1 U lsb $end
$var wire 1 V ie $end
$var wire 1 W ass $end
$var wire 1 X spi_divider_sel $end
$var wire 1 Y spi_ctrl_sel $end
$var wire 4 Z spi_tx_sel [3:0] $end
$var wire 1 [ spi_ss_sel $end
$var wire 1 \ tip $end
$var wire 1 ] pos_edge $end
$var wire 1 ^ neg_edge $end
$var wire 1 _ last_bit $end

$scope module clgen $end
$var wire 1 < clk_in $end
$var wire 1 = rst $end
$var wire 1 \ enable $end
$var wire 1 T go $end
$var wire 1 _ last_clk $end
$var wire 16 L divider [15:0] $end
$var reg 1 ` clk_out $end
$var reg 1 ] pos_edge $end
$var reg 1 ^ neg_edge $end
$var reg 16 a cnt [15:0] $end
$var wire 1 b cnt_zero $end
$var wire 1 c cnt_one $end
$upscope $end


$scope module shift $end
$var wire 1 < clk $end
$var wire 1 = rst $end
$var wire 4 d latch [3:0] $end
$var wire 4 A byte_sel [3:0] $end
$var wire 7 S len [6:0] $end
$var wire 1 U lsb $end
$var wire 1 T go $end
$var wire 1 ] pos_edge $end
$var wire 1 ^ neg_edge $end
$var wire 1 Q rx_negedge $end
$var wire 1 R tx_negedge $end
$var reg 1 \ tip $end
$var wire 1 _ last $end
$var wire 32 ? p_in [31:0] $end
$var wire 128 P p_out [127:0] $end
$var wire 1 I s_clk $end
$var wire 1 K s_in $end
$var reg 1 e s_out $end
$var reg 8 f cnt [7:0] $end
$var reg 128 P data [127:0] $end
$var wire 8 g tx_bit_pos [7:0] $end
$var wire 8 h rx_bit_pos [7:0] $end
$var wire 1 i rx_clk $end
$var wire 1 j tx_clk $end
$upscope $end


$scope module spi_assrt $end
$var reg 1 k wb_rst_i $end
$var reg 5 l wb_adr_i [4:0] $end
$var reg 32 m wb_dat_i [31:0] $end
$var reg 32 n wb_dat_o [31:0] $end
$var reg 4 o wb_sel_i [3:0] $end
$var reg 1 p wb_we_i $end
$var reg 1 p wb_stb_i $end
$var reg 1 q wb_cyc_i $end
$var reg 1 r wb_ack_o $end
$var reg 1 s wb_int_o $end
$var reg 8 t ss_pad_o [7:0] $end
$var reg 1 u sclk_pad_o $end
$var reg 1 v wb_clk_i $end
$var reg 1 F wb_err_o $end
$var reg 1 J mosi_pad_o $end
$var reg 1 K miso_pad_i $end

$scope task _$$txp_pass_action_write_ack_o_p_check $end
$upscope $end


$scope task _$$txp_pass_action_read_ack_o_p_check $end
$upscope $end


$scope task _$$txp_pass_action_ss_pad_o_p_check $end
$upscope $end


$scope task _$$txp_pass_action_rst_bhv_p_check $end
$upscope $end


$scope task _$$txp_pass_action_rst_bhv_int_o_p_check $end
$upscope $end


$scope task _$$txp_pass_action_rst_bhv_dat_o_p_check $end
$upscope $end


$scope task _$$txp_pass_action_sclk_pad_o_p_check $end
$upscope $end


$scope task _$$txp______assert_rst_bhv_ack_o_p_cover $end
$upscope $end


$scope task _$$txp______assert_rst_bhv_int_o_p_cover $end
$upscope $end


$scope task _$$txp______assert_rst_bhv_dat_o_p_cover $end
$upscope $end

$upscope $end

$upscope $end

$upscope $end


$scope module uvm_pkg $end
$var time 64 w setting_offset $end
$var reg 32 x uvm_global_random_seed [31:0] $end
$var reg 32 y UVM_UNBOUNDED_CONNECTIONS [31:0] $end
$var reg 1 z uvm_start_uvm_declarations $end
$var reg 32 { setting_verbosity [31:0] $end
$var reg 1 | is_verdi_set_verbosity_called $end
$upscope $end

$enddefinitions $end

#0
$dumpvars
0|
1z
bxxxxxxxxxxxxxxxxxxxxxxxxxxxxxxxxxxxxxxxxxxxxxxxxxxxxxxxxxxxxxxxx w
b11111111111111111111111111111111 y
b00000000000000000000000000000000 {
b01000010000001111100110001000111 x
b00000000 )
b00000000 '
b00000000 (
b10100010 &
0*
1+
bxxxxxxxxxxxxxxxxxxxxxxxxxxxxxxxx 4
bxxxx 0
bxxxxxxxxxxxxxxxxxxxxxxxxxxxxxxxx /
bxxxxx .
bxxxxxxxx 9
x^
x]
x`
xc
xb
x_
xi
xe
x\
xu
xr
xq
xs
1k
xp
xY
xX
x[
xQ
xR
xT
xU
xV
xW
xj
xE
xG
bxxxxxxxxxxxxxxxx a
bxxxxxxxxxxxxxx M
bxxxxxxxxxxxxxxxxxxxxxxxxxxxxxxxxxxxxxxxxxxxxxxxxxxxxxxxxxxxxxxxxxxxxxxxxxxxxxxxxxxxxxxxxxxxxxxxxxxxxxxxxxxxxxxxxxxxxxxxxxxxxxxxx P
bxxxxxxxxxxxxxxxx L
bxxxx d
bxxxxxxxx h
bxxxxxxxx f
bxxxxxxxx t
bxxxxx l
bxxxxxxxxxxxxxxxxxxxxxxxxxxxxxxxx m
bxxxxxxxxxxxxxxxxxxxxxxxxxxxxxxxx n
bxxxx o
bxxxxxxxxxxxxxxxxxxxxxxxxxxxxxxxx N
bxxxx Z
bxxxxxxx S
bxxxxxxxx g
bxxxxxxxxxxxxxxxxxxxxxxxxxxxxxxxx O
bxxxxxxxxxxxxxxxxxxxxxxxxxxxxxxxx @
bxxxxxxxx %
z!
z"
z#
x$
bxxxxxxxxxxxxxxxxxxxxxxxxxxxxxxxx H
1=
bxxxxx >
bxxxxxxxxxxxxxxxxxxxxxxxxxxxxxxxx ?
bxxxx A
x8
x;
x:
xD
0F
xC
xB
xK
xJ
xI
0,
1-
0<
x5
x3
06
x7
x2
x1
0v
$end
#100
b00000000000000000000000000000000 @
b00000000000000000000000000000000 n
b00000000000000000000000000000000 4
0E
0r
05
0G
0s
07
b0000000000000000 L
b00000000000000 M
0Q
0R
b0000000 S
0T
0U
0V
0W
b00000000000000000000000000000000 N
b1111111111111111 a
0c
0b
0`
0I
0:
0u
0]
0^
b00000000 f
1_
0\
0e
0J
0;
b00000000000000000000000000000000000000000000000000000000000000000000000000000000000000000000000000000000000000000000000000000000 P
b11111111111111111111111111111111 H
b11111111 9
b11111111 t
0j
0i
b11111111 h
b11111111 g
#500
1*
1<
1v
1,
02
0C
b0000 Z
03
0D
0q
b0000 0
b00000000000000000000000000000000 /
b00000 .
01
0B
0p
b0000 d
0[
0Y
0X
b0000 A
b0000 o
b00000000000000000000000000000000 ?
b00000000000000000000000000000000 m
b00000 >
b00000 l
b00000000000000000000000000000000 O
#1000
0*
0<
0v
0,
#1500
1*
1<
1v
1,
#2000
0*
0<
0v
0,
#2500
1*
1<
1v
1,
#3000
0+
0=
0k
0-
0*
0<
0v
0,
#3500
1*
1<
1v
1,
x1
xB
xp
#3600
b0000000000000000 a
1b
b10000000 f
0_
b01111111 h
b01111111 g
#4000
0*
0<
0v
0,
#4500
1*
1<
1v
1,
#5000
0*
0<
0v
0,
#5500
1*
1<
1v
1,
#6000
0*
0<
0v
0,
#6500
1*
1<
1v
1,
#7000
0*
0<
0v
0,
#7500
1*
1<
1v
1,
#8000
0*
0<
0v
0,
#8500
1*
1<
1v
1,
#9000
0*
0<
0v
0,
#9500
1*
1<
1v
1,
#10000
0*
0<
0v
0,
#10500
1*
1<
1v
1,
#11000
0*
0<
0v
0,
#11500
1*
1<
1v
1,
#12000
0*
0<
0v
0,
#12500
1*
1<
1v
1,
#13000
0*
0<
0v
0,
#13500
1*
1<
1v
1,
11
1B
1p
13
1D
1q
12
1C
b0001 Z
b1111 0
b01010011010101111110010101000111 /
b0001 d
b1111 A
b1111 o
b01010011010101111110010101000111 ?
b01010011010101111110010101000111 m
#14000
0*
0<
0v
0,
#14500
1*
1<
1v
1,
x1
xB
xp
03
0D
b0000 Z
0q
02
0C
b0000 d
#14600
1E
1r
15
b00000000000000000000000000000000000000000000000000000000000000000000000000000000000000000000000001010011010101111110010101000111 P
b01010011010101111110010101000111 O
#15000
0*
0<
0v
0,
#15500
1*
1<
1v
1,
11
1B
1p
b00100 .
13
1D
1q
12
1C
b0001 Z
b00111000100010100010111111011000 /
b0001 d
b00100 >
b0010 Z
b00100 l
b00111000100010100010111111011000 ?
b00111000100010100010111111011000 m
b0010 d
b00000000000000000000000000000000 O
#15600
b01010011010101111110010101000111 @
b01010011010101111110010101000111 n
b01010011010101111110010101000111 4
0E
0r
05
#16000
0*
0<
0v
0,
#16500
1*
1<
1v
1,
x1
xB
xp
03
0D
b0000 Z
0q
02
0C
b0000 d
#16600
b00000000000000000000000000000000 @
b00000000000000000000000000000000 n
b00000000000000000000000000000000 4
1E
1r
15
b00000000000000000000000000000000000000000000000000000000000000000011100010001010001011111101100001010011010101111110010101000111 P
b00111000100010100010111111011000 O
#17000
0*
0<
0v
0,
#17500
1*
1<
1v
1,
11
1B
1p
b01000 .
13
1D
1q
12
1C
b0010 Z
b01001110111000001010010100101001 /
b0010 d
b01000 >
b0100 Z
b01000 l
b01001110111000001010010100101001 ?
b01001110111000001010010100101001 m
b0100 d
b00000000000000000000000000000000 O
#17600
b00111000100010100010111111011000 @
b00111000100010100010111111011000 n
b00111000100010100010111111011000 4
0E
0r
05
#18000
0*
0<
0v
0,
#18500
1*
1<
1v
1,
x1
xB
xp
03
0D
b0000 Z
0q
02
0C
b0000 d
#18600
b00000000000000000000000000000000 @
b00000000000000000000000000000000 n
b00000000000000000000000000000000 4
1E
1r
15
b00000000000000000000000000000000010011101110000010100101001010010011100010001010001011111101100001010011010101111110010101000111 P
b01001110111000001010010100101001 O
#19000
0*
0<
0v
0,
#19500
1*
1<
1v
1,
11
1B
1p
b01100 .
13
1D
1q
12
1C
b0100 Z
b00011001111101010001011000111101 /
b0100 d
b01100 >
b1000 Z
b01100 l
b00011001111101010001011000111101 ?
b00011001111101010001011000111101 m
b1000 d
b00000000000000000000000000000000 O
#19600
b01001110111000001010010100101001 @
b01001110111000001010010100101001 n
b01001110111000001010010100101001 4
0E
0r
05
#20000
0*
0<
0v
0,
#20500
1*
1<
1v
1,
x1
xB
xp
03
0D
b0000 Z
0q
02
0C
b0000 d
#20600
b00000000000000000000000000000000 @
b00000000000000000000000000000000 n
b00000000000000000000000000000000 4
1E
1r
15
b00011001111101010001011000111101010011101110000010100101001010010011100010001010001011111101100001010011010101111110010101000111 P
b00011001111101010001011000111101 O
#21000
0*
0<
0v
0,
#21500
1*
1<
1v
1,
11
1B
1p
b10000 .
13
1D
1q
12
1C
b1000 Z
b01000110010000011111000000011000 /
b1000 d
b10000 >
b0000 Z
b10000 l
b01000110010000011111000000011000 ?
b01000110010000011111000000011000 m
1Y
b0000 d
b00000000000000000000000000000000 O
#21600
b00011001111101010001011000111101 @
b00011001111101010001011000111101 n
b00011001111101010001011000111101 4
0E
0r
05
#22000
0*
0<
0v
0,
#22500
1*
1<
1v
1,
x1
xB
xp
03
0D
0q
02
0C
0Y
#22600
b00000000000000000000000000000000 @
b00000000000000000000000000000000 n
b00000000000000000000000000000000 4
1E
1r
15
b00000000011000 M
b0011000 S
b11000000011000 M
1V
1W
b00000000000000000011000000011000 O
#23000
0*
0<
0v
0,
#23500
1*
1<
1v
1,
11
1B
1p
b10100 .
13
1D
1q
12
1C
b00000000000000000000000000001011 /
1Y
b10100 >
b10100 l
b00000000000000000000000000001011 ?
b00000000000000000000000000001011 m
0Y
1X
b00000000000000000000000000000000 O
#23600
b00011000 f
b00000000000000000011000000011000 @
b00000000000000000011000000011000 n
b00000000000000000011000000011000 4
0E
0r
05
b00010111 h
b00010111 g
#24000
0*
0<
0v
0,
#24500
1*
1<
1v
1,
x1
xB
xp
03
0D
0q
02
0C
0X
#24600
b00000000000000000000000000000000 @
b00000000000000000000000000000000 n
b00000000000000000000000000000000 4
1E
1r
15
b0000000000001011 L
b00000000000000000000000000001011 O
#25000
0*
0<
0v
0,
#25500
1*
1<
1v
1,
11
1B
1p
b11000 .
13
1D
1q
12
1C
b00000000000000000000000000000001 /
1X
b11000 >
b11000 l
b00000000000000000000000000000001 ?
b00000000000000000000000000000001 m
1[
0X
b00000000000000000000000000000000 O
#25600
b0000000000001011 a
0b
b00000000000000000000000000001011 @
b00000000000000000000000000001011 n
b00000000000000000000000000001011 4
0E
0r
05
#26000
0*
0<
0v
0,
#26500
1*
1<
1v
1,
x1
xB
xp
03
0D
0q
02
0C
0[
#26600
b00000000000000000000000000000000 @
b00000000000000000000000000000000 n
b00000000000000000000000000000000 4
1E
1r
15
b00000000000000000000000000000001 N
b00000000000000000000000000000001 O
#27000
0*
0<
0v
0,
#27500
1*
1<
1v
1,
11
1B
1p
b10000 .
13
1D
1q
12
1C
b01000110010000011111000100011000 /
1[
b10000 >
b10000 l
b01000110010000011111000100011000 ?
b01000110010000011111000100011000 m
0[
1Y
b00000000000000000011000000011000 O
#27600
b00000000000000000000000000000001 @
b00000000000000000000000000000001 n
b00000000000000000000000000000001 4
0E
0r
05
#28000
0*
0<
0v
0,
#28500
1*
1<
1v
1,
x1
xB
xp
03
0D
0q
02
0C
0Y
#28600
b00000000000000000011000000011000 @
b00000000000000000011000000011000 n
b00000000000000000011000000011000 4
1E
1r
15
b11000100011000 M
1T
b00000000000000000011000100011000 O
#29000
0*
0<
0v
0,
#29500
1*
1<
1v
1,
#29600
1\
b00000000000000000011000100011000 @
b00000000000000000011000100011000 n
b00000000000000000011000100011000 4
0E
0r
05
b11111111111111111111111111111110 H
b11111110 9
b11111110 t
#30000
0*
0<
0v
0,
#30500
1*
1<
1v
1,
#30600
b0000000000001010 a
#31000
0*
0<
0v
0,
#31500
1*
1<
1v
1,
#31600
b0000000000001001 a
#32000
0*
0<
0v
0,
#32500
1*
1<
1v
1,
#32600
b0000000000001000 a
#33000
0*
0<
0v
0,
#33500
1*
1<
1v
1,
#33600
b0000000000000111 a
#34000
0*
0<
0v
0,
#34500
1*
1<
1v
1,
#34600
b0000000000000110 a
#35000
0*
0<
0v
0,
#35500
1*
1<
1v
1,
#35600
b0000000000000101 a
#36000
0*
0<
0v
0,
#36500
1*
1<
1v
1,
#36600
b0000000000000100 a
#37000
0*
0<
0v
0,
#37500
1*
1<
1v
1,
#37600
b0000000000000011 a
#38000
0*
0<
0v
0,
#38500
1*
1<
1v
1,
#38600
b0000000000000010 a
#39000
0*
0<
0v
0,
#39500
1*
1<
1v
1,
#39600
b0000000000000001 a
1c
#40000
0*
0<
0v
0,
#40500
1*
1<
1v
1,
#40600
b0000000000000000 a
0c
1b
1]
1j
1i
#41000
0*
0<
0v
0,
#41500
1*
1<
1v
1,
#41600
b0000000000001011 a
0b
b00010111 f
1`
1I
1:
1u
0]
b00011001111101010001011000111101010011101110000010100101001010010011100010001010001011111101100001010011x10101111110010101000111 P
b00010110 h
b00010110 g
0j
0i
#42000
0*
0<
0v
0,
#42500
1*
1<
1v
1,
#42600
b0000000000001010 a
#43000
0*
0<
0v
0,
#43500
1*
1<
1v
1,
#43600
b0000000000001001 a
#44000
0*
0<
0v
0,
#44500
1*
1<
1v
1,
#44600
b0000000000001000 a
#45000
0*
0<
0v
0,
#45500
1*
1<
1v
1,
#45600
b0000000000000111 a
#46000
0*
0<
0v
0,
#46500
1*
1<
1v
1,
#46600
b0000000000000110 a
#47000
0*
0<
0v
0,
#47500
1*
1<
1v
1,
#47600
b0000000000000101 a
#48000
0*
0<
0v
0,
#48500
1*
1<
1v
1,
#48600
b0000000000000100 a
#49000
0*
0<
0v
0,
#49500
1*
1<
1v
1,
#49600
b0000000000000011 a
#50000
0*
0<
0v
0,
#50500
1*
1<
1v
1,
#50600
b0000000000000010 a
#51000
0*
0<
0v
0,
#51500
1*
1<
1v
1,
#51600
b0000000000000001 a
1c
#52000
0*
0<
0v
0,
#52500
1*
1<
1v
1,
#52600
b0000000000000000 a
0c
1b
1^
#53000
0*
0<
0v
0,
#53500
1*
1<
1v
1,
#53600
b0000000000001011 a
0b
0`
0I
0:
0u
0^
08
0K
#54000
0*
0<
0v
0,
#54500
1*
1<
1v
1,
#54600
b0000000000001010 a
#55000
0*
0<
0v
0,
#55500
1*
1<
1v
1,
#55600
b0000000000001001 a
#56000
0*
0<
0v
0,
#56500
1*
1<
1v
1,
#56600
b0000000000001000 a
#57000
0*
0<
0v
0,
#57500
1*
1<
1v
1,
#57600
b0000000000000111 a
#58000
0*
0<
0v
0,
#58500
1*
1<
1v
1,
#58600
b0000000000000110 a
#59000
0*
0<
0v
0,
#59500
1*
1<
1v
1,
#59600
b0000000000000101 a
#60000
0*
0<
0v
0,
#60500
1*
1<
1v
1,
#60600
b0000000000000100 a
#61000
0*
0<
0v
0,
#61500
1*
1<
1v
1,
#61600
b0000000000000011 a
#62000
0*
0<
0v
0,
#62500
1*
1<
1v
1,
#62600
b0000000000000010 a
#63000
0*
0<
0v
0,
#63500
1*
1<
1v
1,
#63600
b0000000000000001 a
1c
#64000
0*
0<
0v
0,
#64500
1*
1<
1v
1,
#64600
b0000000000000000 a
0c
1b
1]
1j
1i
#65000
0*
0<
0v
0,
#65500
1*
1<
1v
1,
#65600
b0000000000001011 a
0b
b00010110 f
1`
1I
1:
1u
0]
1e
1J
1;
b00011001111101010001011000111101010011101110000010100101001010010011100010001010001011111101100001010011x00101111110010101000111 P
b00010101 h
b00010101 g
0j
0i
#66000
0*
0<
0v
0,
#66500
1*
1<
1v
1,
#66600
b0000000000001010 a
#67000
0*
0<
0v
0,
#67500
1*
1<
1v
1,
#67600
b0000000000001001 a
#68000
0*
0<
0v
0,
#68500
1*
1<
1v
1,
#68600
b0000000000001000 a
#69000
0*
0<
0v
0,
#69500
1*
1<
1v
1,
#69600
b0000000000000111 a
#70000
0*
0<
0v
0,
#70500
1*
1<
1v
1,
#70600
b0000000000000110 a
#71000
0*
0<
0v
0,
#71500
1*
1<
1v
1,
#71600
b0000000000000101 a
#72000
0*
0<
0v
0,
#72500
1*
1<
1v
1,
#72600
b0000000000000100 a
#73000
0*
0<
0v
0,
#73500
1*
1<
1v
1,
#73600
b0000000000000011 a
#74000
0*
0<
0v
0,
#74500
1*
1<
1v
1,
#74600
b0000000000000010 a
#75000
0*
0<
0v
0,
#75500
1*
1<
1v
1,
#75600
b0000000000000001 a
1c
#76000
0*
0<
0v
0,
#76500
1*
1<
1v
1,
#76600
b0000000000000000 a
0c
1b
1^
#77000
0*
0<
0v
0,
#77500
1*
1<
1v
1,
#77600
b0000000000001011 a
0b
0`
0I
0:
0u
0^
18
1K
#78000
0*
0<
0v
0,
#78500
1*
1<
1v
1,
#78600
b0000000000001010 a
#79000
0*
0<
0v
0,
#79500
1*
1<
1v
1,
#79600
b0000000000001001 a
#80000
0*
0<
0v
0,
#80500
1*
1<
1v
1,
#80600
b0000000000001000 a
#81000
0*
0<
0v
0,
#81500
1*
1<
1v
1,
#81600
b0000000000000111 a
#82000
0*
0<
0v
0,
#82500
1*
1<
1v
1,
#82600
b0000000000000110 a
#83000
0*
0<
0v
0,
#83500
1*
1<
1v
1,
#83600
b0000000000000101 a
#84000
0*
0<
0v
0,
#84500
1*
1<
1v
1,
#84600
b0000000000000100 a
#85000
0*
0<
0v
0,
#85500
1*
1<
1v
1,
#85600
b0000000000000011 a
#86000
0*
0<
0v
0,
#86500
1*
1<
1v
1,
#86600
b0000000000000010 a
#87000
0*
0<
0v
0,
#87500
1*
1<
1v
1,
#87600
b0000000000000001 a
1c
#88000
0*
0<
0v
0,
#88500
1*
1<
1v
1,
#88600
b0000000000000000 a
0c
1b
1]
1j
1i
#89000
0*
0<
0v
0,
#89500
1*
1<
1v
1,
#89600
b0000000000001011 a
0b
b00010101 f
1`
1I
1:
1u
0]
0e
0J
0;
b00011001111101010001011000111101010011101110000010100101001010010011100010001010001011111101100001010011x01101111110010101000111 P
b00010100 h
b00010100 g
0j
0i
#90000
0*
0<
0v
0,
#90500
1*
1<
1v
1,
#90600
b0000000000001010 a
#91000
0*
0<
0v
0,
#91500
1*
1<
1v
1,
#91600
b0000000000001001 a
#92000
0*
0<
0v
0,
#92500
1*
1<
1v
1,
#92600
b0000000000001000 a
#93000
0*
0<
0v
0,
#93500
1*
1<
1v
1,
#93600
b0000000000000111 a
#94000
0*
0<
0v
0,
#94500
1*
1<
1v
1,
#94600
b0000000000000110 a
#95000
0*
0<
0v
0,
#95500
1*
1<
1v
1,
#95600
b0000000000000101 a
#96000
0*
0<
0v
0,
#96500
1*
1<
1v
1,
#96600
b0000000000000100 a
#97000
0*
0<
0v
0,
#97500
1*
1<
1v
1,
#97600
b0000000000000011 a
#98000
0*
0<
0v
0,
#98500
1*
1<
1v
1,
#98600
b0000000000000010 a
#99000
0*
0<
0v
0,
#99500
1*
1<
1v
1,
#99600
b0000000000000001 a
1c
#100000
0*
0<
0v
0,
#100500
1*
1<
1v
1,
#100600
b0000000000000000 a
0c
1b
1^
#101000
0*
0<
0v
0,
#101500
1*
1<
1v
1,
#101600
b0000000000001011 a
0b
0`
0I
0:
0u
0^
08
0K
#102000
0*
0<
0v
0,
#102500
1*
1<
1v
1,
#102600
b0000000000001010 a
#103000
0*
0<
0v
0,
#103500
1*
1<
1v
1,
#103600
b0000000000001001 a
#104000
0*
0<
0v
0,
#104500
1*
1<
1v
1,
#104600
b0000000000001000 a
#105000
0*
0<
0v
0,
#105500
1*
1<
1v
1,
#105600
b0000000000000111 a
#106000
0*
0<
0v
0,
#106500
1*
1<
1v
1,
#106600
b0000000000000110 a
#107000
0*
0<
0v
0,
#107500
1*
1<
1v
1,
#107600
b0000000000000101 a
#108000
0*
0<
0v
0,
#108500
1*
1<
1v
1,
#108600
b0000000000000100 a
#109000
0*
0<
0v
0,
#109500
1*
1<
1v
1,
#109600
b0000000000000011 a
#110000
0*
0<
0v
0,
#110500
1*
1<
1v
1,
#110600
b0000000000000010 a
#111000
0*
0<
0v
0,
#111500
1*
1<
1v
1,
#111600
b0000000000000001 a
1c
#112000
0*
0<
0v
0,
#112500
1*
1<
1v
1,
#112600
b0000000000000000 a
0c
1b
1]
1j
1i
#113000
0*
0<
0v
0,
#113500
1*
1<
1v
1,
#113600
b0000000000001011 a
0b
b00010100 f
1`
1I
1:
1u
0]
1e
1J
1;
b00011001111101010001011000111101010011101110000010100101001010010011100010001010001011111101100001010011x01001111110010101000111 P
b00010011 h
b00010011 g
0j
0i
#114000
0*
0<
0v
0,
#114500
1*
1<
1v
1,
#114600
b0000000000001010 a
#115000
0*
0<
0v
0,
#115500
1*
1<
1v
1,
#115600
b0000000000001001 a
#116000
0*
0<
0v
0,
#116500
1*
1<
1v
1,
#116600
b0000000000001000 a
#117000
0*
0<
0v
0,
#117500
1*
1<
1v
1,
#117600
b0000000000000111 a
#118000
0*
0<
0v
0,
#118500
1*
1<
1v
1,
#118600
b0000000000000110 a
#119000
0*
0<
0v
0,
#119500
1*
1<
1v
1,
#119600
b0000000000000101 a
#120000
0*
0<
0v
0,
#120500
1*
1<
1v
1,
#120600
b0000000000000100 a
#121000
0*
0<
0v
0,
#121500
1*
1<
1v
1,
#121600
b0000000000000011 a
#122000
0*
0<
0v
0,
#122500
1*
1<
1v
1,
#122600
b0000000000000010 a
#123000
0*
0<
0v
0,
#123500
1*
1<
1v
1,
#123600
b0000000000000001 a
1c
#124000
0*
0<
0v
0,
#124500
1*
1<
1v
1,
#124600
b0000000000000000 a
0c
1b
1^
#125000
0*
0<
0v
0,
#125500
1*
1<
1v
1,
#125600
b0000000000001011 a
0b
0`
0I
0:
0u
0^
#126000
0*
0<
0v
0,
#126500
1*
1<
1v
1,
#126600
b0000000000001010 a
#127000
0*
0<
0v
0,
#127500
1*
1<
1v
1,
#127600
b0000000000001001 a
#128000
0*
0<
0v
0,
#128500
1*
1<
1v
1,
#128600
b0000000000001000 a
#129000
0*
0<
0v
0,
#129500
1*
1<
1v
1,
#129600
b0000000000000111 a
#130000
0*
0<
0v
0,
#130500
1*
1<
1v
1,
#130600
b0000000000000110 a
#131000
0*
0<
0v
0,
#131500
1*
1<
1v
1,
#131600
b0000000000000101 a
#132000
0*
0<
0v
0,
#132500
1*
1<
1v
1,
#132600
b0000000000000100 a
#133000
0*
0<
0v
0,
#133500
1*
1<
1v
1,
#133600
b0000000000000011 a
#134000
0*
0<
0v
0,
#134500
1*
1<
1v
1,
#134600
b0000000000000010 a
#135000
0*
0<
0v
0,
#135500
1*
1<
1v
1,
#135600
b0000000000000001 a
1c
#136000
0*
0<
0v
0,
#136500
1*
1<
1v
1,
#136600
b0000000000000000 a
0c
1b
1]
1j
1i
#137000
0*
0<
0v
0,
#137500
1*
1<
1v
1,
#137600
b0000000000001011 a
0b
b00010011 f
1`
1I
1:
1u
0]
0e
0J
0;
b00010010 h
b00010010 g
0j
0i
#138000
0*
0<
0v
0,
#138500
1*
1<
1v
1,
#138600
b0000000000001010 a
#139000
0*
0<
0v
0,
#139500
1*
1<
1v
1,
#139600
b0000000000001001 a
#140000
0*
0<
0v
0,
#140500
1*
1<
1v
1,
#140600
b0000000000001000 a
#141000
0*
0<
0v
0,
#141500
1*
1<
1v
1,
#141600
b0000000000000111 a
#142000
0*
0<
0v
0,
#142500
1*
1<
1v
1,
#142600
b0000000000000110 a
#143000
0*
0<
0v
0,
#143500
1*
1<
1v
1,
#143600
b0000000000000101 a
#144000
0*
0<
0v
0,
#144500
1*
1<
1v
1,
#144600
b0000000000000100 a
#145000
0*
0<
0v
0,
#145500
1*
1<
1v
1,
#145600
b0000000000000011 a
#146000
0*
0<
0v
0,
#146500
1*
1<
1v
1,
#146600
b0000000000000010 a
#147000
0*
0<
0v
0,
#147500
1*
1<
1v
1,
#147600
b0000000000000001 a
1c
#148000
0*
0<
0v
0,
#148500
1*
1<
1v
1,
#148600
b0000000000000000 a
0c
1b
1^
#149000
0*
0<
0v
0,
#149500
1*
1<
1v
1,
#149600
b0000000000001011 a
0b
0`
0I
0:
0u
0^
#150000
0*
0<
0v
0,
#150500
1*
1<
1v
1,
#150600
b0000000000001010 a
#151000
0*
0<
0v
0,
#151500
1*
1<
1v
1,
#151600
b0000000000001001 a
#152000
0*
0<
0v
0,
#152500
1*
1<
1v
1,
#152600
b0000000000001000 a
#153000
0*
0<
0v
0,
#153500
1*
1<
1v
1,
#153600
b0000000000000111 a
#154000
0*
0<
0v
0,
#154500
1*
1<
1v
1,
#154600
b0000000000000110 a
#155000
0*
0<
0v
0,
#155500
1*
1<
1v
1,
#155600
b0000000000000101 a
#156000
0*
0<
0v
0,
#156500
1*
1<
1v
1,
#156600
b0000000000000100 a
#157000
0*
0<
0v
0,
#157500
1*
1<
1v
1,
#157600
b0000000000000011 a
#158000
0*
0<
0v
0,
#158500
1*
1<
1v
1,
#158600
b0000000000000010 a
#159000
0*
0<
0v
0,
#159500
1*
1<
1v
1,
#159600
b0000000000000001 a
1c
#160000
0*
0<
0v
0,
#160500
1*
1<
1v
1,
#160600
b0000000000000000 a
0c
1b
1]
1j
1i
#161000
0*
0<
0v
0,
#161500
1*
1<
1v
1,
#161600
b0000000000001011 a
0b
b00010010 f
1`
1I
1:
1u
0]
1e
1J
1;
b00011001111101010001011000111101010011101110000010100101001010010011100010001010001011111101100001010011x01000111110010101000111 P
b00010001 h
b00010001 g
0j
0i
#162000
0*
0<
0v
0,
#162500
1*
1<
1v
1,
#162600
b0000000000001010 a
#163000
0*
0<
0v
0,
#163500
1*
1<
1v
1,
#163600
b0000000000001001 a
#164000
0*
0<
0v
0,
#164500
1*
1<
1v
1,
#164600
b0000000000001000 a
#165000
0*
0<
0v
0,
#165500
1*
1<
1v
1,
#165600
b0000000000000111 a
#166000
0*
0<
0v
0,
